{
  "project_info": {
    "project_number": "601376659172",
    "firebase_url": "https://taxiyefood.firebaseio.com",
    "project_id": "taxiyefood",
    "storage_bucket": "taxiyefood.appspot.com"
  },
  "client": [
    {
      "client_info": {
        "mobilesdk_app_id": "1:601376659172:android:84ee40c2885cec4f",
        "android_client_info": {
          "package_name": "com.taxiyefood"
        }
      },
      "oauth_client": [
        {
          "client_id": "601376659172-b83ma460mm0tqp68q74aquocckqkkjl8.apps.googleusercontent.com",
          "client_type": 1,
          "android_info": {
            "package_name": "com.taxiyefood",
            "certificate_hash": "309a1b826cbd7a418e807f718c7c00044a2821d7"
          }
        },
        {
          "client_id": "601376659172-ei3a0pbknp28l1kebiuftbkab6539plp.apps.googleusercontent.com",
          "client_type": 3
        }
      ],
      "api_key": [
        {
          "current_key": "AIzaSyBicog1eiMvajOaiJJk4gulrRR4ccN3GSE"
        }
      ],
      "services": {
        "appinvite_service": {
          "other_platform_oauth_client": [
            {
              "client_id": "601376659172-ei3a0pbknp28l1kebiuftbkab6539plp.apps.googleusercontent.com",
              "client_type": 3
            }
          ]
        }
      }
    }
  ],
  "configuration_version": "1"
}